{
    "$schema": "https://docs.renovatebot.com/renovate-schema.json",
    "extends": ["gitlab>guardianproject-ops/projects:renovate.json5"],
    "customManagers": [
        {
            "customType": "regex",
            "fileMatch": ["\\.tf$"],
            "matchStrings": [
                "variable [\"']?[a-zA-Z0-9_]+_container_image[\"']? *{[^}]*default *= *[\"'](?<registryUrl>[^\"']+)\\/(?<depName>[^:\"']+):(?<currentValue>[a-zA-Z0-9-_.]+)[\"'][^}]*}"
            ],
            "datasourceTemplate": "docker",
            "versioningTemplate": "docker"
        }
    ]
}
